{
  "code": 200,
  "data": {
    "content": [
      {
        "item_id": 525694095950,
        "item_cid": 1205,
        "item_title": "WRZX6重低音挂耳式运动耳机",
        "item_full_title": "WRZ X6重低音手机苹果韩国通用男女耳塞挂耳式运动入耳式耳机耳麦",
        "item_price": 39.80,
        "item_discount_price": 9.80,
        "item_pic_url": "http://img04.taobaocdn.com/bao/uploaded/i4/TB11pzGPpXXXXXoXFXXXXXXXXXX_!!0-item_pic.jpg",
        "item_sale": 349894,
        "shop_id": 113000376,
        "shop_name": "华胜天齐数码专营店",
        "shop_type": "B",
        "shop_cat": "",
        "guide_desc": "双振膜低音劲频，3.5mm双声道插头，IPX防水，乐动无限，多色可选尊享奢华~",
        "total_comm": 0.00,
        "comm_rate": "1.3",
        "comm_rate1": "31.3",
        "comm_rate2": "0",
        "comm_rate3": "31.3",
        "activity_id": "7a3d75400cac4e01a3fe6823b88893f8",
        "root_category_id": 50011972,
        "item_online_status": 1,
        "create_time": "2017-06-06T19:07:26",
        "update_time": "2017-08-07T11:00:07",
        "coupon": {
          "id": 860225,
          "coupon_money": 30.00,
          "coupon_limit": 35.00,
          "total_count": 100000,
          "remain_count": 100000,
          "start_time": "2017-08-03T00:00:00",
          "end_time": "2017-08-31T23:59:59",
          "is_valid": true
        }
      },
      {
        "item_id": 521422451240,
        "item_cid": 50012478,
        "item_title": "植护原木抽纸三层整箱24包",
        "item_full_title": "植护 原木抽纸24包整箱家庭装 抽取式面巾纸卫生纸巾餐巾纸擦手纸",
        "item_price": 29.99,
        "item_discount_price": 28.99,
        "item_pic_url": "http://img03.taobaocdn.com/bao/uploaded/i3/2219509495/TB1G_00RVXXXXbtXVXXXXXXXXXX_!!0-item_pic.jpg",
        "item_sale": 262192,
        "shop_id": 113624523,
        "shop_name": "植护旗舰店",
        "shop_type": "B",
        "shop_cat": "",
        "guide_desc": "全网销量第一，天然好纸，环保健康，不含添加剂，绵软细致，母婴可用，吸水性超强，3层超强韧度，可以当湿巾的抽纸！拍下就送绵羊柔原木抽纸。",
        "total_comm": 0.00,
        "comm_rate": "5.5",
        "comm_rate1": "10.5",
        "comm_rate2": "10.5",
        "comm_rate3": "5.5",
        "activity_id": "25481a52fb6d45feb2410e8c943fd957",
        "root_category_id": 50025705,
        "item_online_status": 1,
        "create_time": "2017-06-18T00:46:54",
        "update_time": "2017-08-07T11:11:18",
        "coupon": {
          "id": 899684,
          "coupon_money": 1.00,
          "coupon_limit": 29.00,
          "total_count": 10000,
          "remain_count": 10000,
          "start_time": "2017-08-06T00:00:00",
          "end_time": "2017-08-09T23:59:59",
          "is_valid": true
        }
      },
      {
        "item_id": 14344454654,
        "item_cid": 350712,
        "item_title": "禾诗电子称 体重秤家用电子秤人体秤体重称成人体重计精准称重仪",
        "item_full_title": "禾诗电子称 体重秤家用电子秤人体秤体重称成人体重计精准称重仪",
        "item_price": 32.90,
        "item_discount_price": 29.90,
        "item_pic_url": "http://img01.taobaocdn.com/bao/uploaded/i1/305081051/TB1F3CbSFXXXXbRXFXXXXXXXXXX_!!0-item_pic.jpg",
        "item_sale": 233673,
        "shop_id": 59354362,
        "shop_name": "禾诗旗舰店",
        "shop_type": "B",
        "shop_cat": "",
        "guide_desc": "评价164万 单店销售683万台 送皮尺",
        "total_comm": 0.00,
        "comm_rate": "12.3",
        "comm_rate1": "12.3",
        "comm_rate2": "0",
        "comm_rate3": "0",
        "activity_id": "adbats_14344454654",
        "root_category_id": 50002768,
        "item_online_status": 1,
        "create_time": "2017-08-04T12:58:32",
        "update_time": "2017-08-07T09:26:40",
        "coupon": {
          "id": 869890,
          "coupon_money": 3.00,
          "coupon_limit": 32.00,
          "total_count": 100000,
          "remain_count": 97775,
          "start_time": "2017-08-02T00:00:00",
          "end_time": "2017-09-30T23:59:59",
          "is_valid": true
        }
      },
      {
        "item_id": 38629407528,
        "item_cid": 50013553,
        "item_title": "房屋医生双组份美缝剂瓷砖地砖专用防水美缝真勾填缝剂胶白镏金色",
        "item_full_title": "房屋医生双组份美缝剂瓷砖地砖专用防水美缝真勾填缝剂胶白镏金色",
        "item_price": 33.00,
        "item_discount_price": 23.00,
        "item_pic_url": "http://img04.taobaocdn.com/bao/uploaded/i4/1060575512/TB1dMu.SFXXXXXtXFXXXXXXXXXX_!!0-item_pic.jpg",
        "item_sale": 216015,
        "shop_id": 100529962,
        "shop_name": "房屋医生旗舰店",
        "shop_type": "B",
        "shop_cat": "",
        "guide_desc": "厂家直销热卖178万+单管送工具双管不送",
        "total_comm": 0.00,
        "comm_rate": "5.5",
        "comm_rate1": "5.5",
        "comm_rate2": "0",
        "comm_rate3": "0",
        "activity_id": "adbats_38629407528",
        "root_category_id": 50020332,
        "item_online_status": 1,
        "create_time": "2017-08-05T11:36:34",
        "update_time": "2017-08-07T09:30:22",
        "coupon": {
          "id": 887844,
          "coupon_money": 10.00,
          "coupon_limit": 25.00,
          "total_count": 5000,
          "remain_count": 1793,
          "start_time": "2017-07-26T00:00:00",
          "end_time": "2017-08-10T23:59:59",
          "is_valid": true
        }
      },
      {
        "item_id": 525872562108,
        "item_cid": 50008882,
        "item_title": "彼尔丹5条礼盒装男士内裤男平角裤纯棉质大码潮青年四角裤底裤头",
        "item_full_title": "彼尔丹5条礼盒装男士内裤男平角裤纯棉质大码潮青年夏季四角裤头",
        "item_price": 29.80,
        "item_discount_price": 24.80,
        "item_pic_url": "http://img04.taobaocdn.com/bao/uploaded/i4/TB1rTOKOVXXXXcbapXXXXXXXXXX_!!0-item_pic.jpg",
        "item_sale": 214287,
        "shop_id": 103899705,
        "shop_name": "彼尔丹旗舰店",
        "shop_type": "B",
        "shop_cat": "",
        "guide_desc": "【65多万好评，4.8分口碑，下单送男袜6双】健康弹力纯棉面料，柔软亲肤，舒适透气，吸湿排汗，不掉色，不起球，经典精美盒装，清爽一夏，多种组合可选！",
        "total_comm": 0.00,
        "comm_rate": "5.5",
        "comm_rate1": "30.5",
        "comm_rate2": "0",
        "comm_rate3": "30.5",
        "activity_id": "f7cb0cf3e5824ba88ff28b83340ddf6a",
        "root_category_id": 1625,
        "item_online_status": 1,
        "create_time": "2017-06-06T19:09:03",
        "update_time": "2017-08-07T11:00:06",
        "coupon": {
          "id": 851415,
          "coupon_money": 5.00,
          "coupon_limit": 29.00,
          "total_count": 9999,
          "remain_count": 9999,
          "start_time": "2017-08-03T00:00:00",
          "end_time": "2017-08-09T23:59:59",
          "is_valid": true
        }
      },
      {
        "item_id": 544589973612,
        "item_cid": 1205,
        "item_title": "宾博 D3重低音苹果安卓手机挂耳运动入耳式耳机通用男女生耳塞式",
        "item_full_title": "宾博 D3重低音苹果安卓手机挂耳运动入耳式耳机通用男女生耳塞式",
        "item_price": 39.90,
        "item_discount_price": 9.90,
        "item_pic_url": "http://img04.taobaocdn.com/bao/uploaded/i4/TB1pk17QpXXXXclXFXXXXXXXXXX_!!0-item_pic.jpg",
        "item_sale": 212884,
        "shop_id": 117726719,
        "shop_name": "宾博华宇非凡专卖店",
        "shop_type": "B",
        "shop_cat": "",
        "guide_desc": "双声道插头，水晶拉丝线，耐拉耐折，寿命长，高效music，保证清晰通话质量，苹果安卓通用。",
        "total_comm": 0.00,
        "comm_rate": "5.4",
        "comm_rate1": "30.3",
        "comm_rate2": "0",
        "comm_rate3": "0",
        "activity_id": "9e94253f15b94a219b9952a0530c4c14",
        "root_category_id": 50011972,
        "item_online_status": 1,
        "create_time": "2017-06-06T19:01:01",
        "update_time": "2017-08-07T11:00:05",
        "coupon": {
          "id": 848132,
          "coupon_money": 30.00,
          "coupon_limit": 39.00,
          "total_count": 10000,
          "remain_count": 5000,
          "start_time": "2017-08-02T00:00:00",
          "end_time": "2017-08-08T23:59:59",
          "is_valid": true
        }
      },
      {
        "item_id": 41741730442,
        "item_cid": 50012587,
        "item_title": "iphone6/6p/7/7p 3d全覆盖手机钢化膜",
        "item_full_title": "carkoci iphone6钢化膜苹果6s钢化膜6plus六苹果7全屏手机膜蓝光",
        "item_price": 10.80,
        "item_discount_price": 5.80,
        "item_pic_url": "http://img04.taobaocdn.com/bao/uploaded/i4/TB1AMEdSpXXXXa9XVXXXXXXXXXX_!!0-item_pic.jpg",
        "item_sale": 184519,
        "shop_id": 72136451,
        "shop_name": "carkoci旗舰店",
        "shop_type": "B",
        "shop_cat": "",
        "guide_desc": "【天猫正品保障】精选优质材料，强韧硬度，防刮耐用，高清抗蓝光，强效升级防指纹，不进尘，全面保护，颜值高，质量好！",
        "total_comm": 0.00,
        "comm_rate": "5.3",
        "comm_rate1": "50.3",
        "comm_rate2": "0",
        "comm_rate3": "0",
        "activity_id": "a245574b46974247912b13a4a734d331",
        "root_category_id": 50008090,
        "item_online_status": 1,
        "create_time": "2017-06-27T12:50:54",
        "update_time": "2017-08-07T11:14:45",
        "coupon": {
          "id": 903603,
          "coupon_money": 5.00,
          "coupon_limit": 10.00,
          "total_count": 10000,
          "remain_count": 10000,
          "start_time": "2017-08-07T00:00:00",
          "end_time": "2017-08-09T23:59:59",
          "is_valid": true
        }
      },
      {
        "item_id": 42077920512,
        "item_cid": 150704,
        "item_title": "品炫 iphone6手机壳6s苹果6plus手机壳透明硅胶防摔7保护套7plus",
        "item_full_title": "品炫 iphone6手机壳6s苹果6plus手机壳透明硅胶防摔7保护套7plus",
        "item_price": 9.90,
        "item_discount_price": 8.90,
        "item_pic_url": "http://img03.taobaocdn.com/bao/uploaded/i3/TB1gdkHPpXXXXb7XFXXXXXXXXXX_!!0-item_pic.jpg",
        "item_sale": 184198,
        "shop_id": 111058332,
        "shop_name": "品炫飞韩专卖店",
        "shop_type": "B",
        "shop_cat": "",
        "guide_desc": "犹如隐形 轻薄透软 裸机手感 环保材质",
        "total_comm": 0.00,
        "comm_rate": "5.3",
        "comm_rate1": "10.3",
        "comm_rate2": "0",
        "comm_rate3": "10.3",
        "activity_id": "adbats_42077920512",
        "root_category_id": 50008090,
        "item_online_status": 1,
        "create_time": "2017-08-05T13:14:30",
        "update_time": "2017-08-07T09:31:09",
        "coupon": {
          "id": 892311,
          "coupon_money": 1.00,
          "coupon_limit": 9.00,
          "total_count": 100000,
          "remain_count": 99991,
          "start_time": "2017-08-04T00:00:00",
          "end_time": "2017-08-13T23:59:59",
          "is_valid": true
        }
      },
      {
        "item_id": 43821437577,
        "item_cid": 1205,
        "item_title": "FANBIYA Q1重低音苹果安卓小米手机通用",
        "item_full_title": "FANBIYA Q1重低音苹果安卓小米手机通用男女生入耳式运动耳塞耳机",
        "item_price": 15.00,
        "item_discount_price": 5.00,
        "item_pic_url": "http://img04.taobaocdn.com/bao/uploaded/i4/TB1G7oGSpXXXXa1XpXXXXXXXXXX_!!0-item_pic.jpg",
        "item_sale": 184178,
        "shop_id": 107662959,
        "shop_name": "华宇非凡数码专营店",
        "shop_type": "B",
        "shop_cat": "",
        "guide_desc": "月销12万，全网销量第一，智能手机电脑通用，完全兼容，带麦入耳式耳机，运动休闲必备，高品质质感。",
        "total_comm": 0.00,
        "comm_rate": "15.3",
        "comm_rate1": "50.3",
        "comm_rate2": "0",
        "comm_rate3": "0",
        "activity_id": "1c28ddf2595746c999ac2c6213f56fc0",
        "root_category_id": 50011972,
        "item_online_status": 1,
        "create_time": "2017-06-09T14:14:29",
        "update_time": "2017-08-07T11:06:23",
        "coupon": {
          "id": 855061,
          "coupon_money": 10.00,
          "coupon_limit": 15.00,
          "total_count": 100000,
          "remain_count": 100000,
          "start_time": "2017-08-03T00:00:00",
          "end_time": "2017-08-09T23:59:59",
          "is_valid": true
        }
      },
      {
        "item_id": 529603242832,
        "item_cid": 50010410,
        "item_title": "夏季护手臂套袖冰丝防晒袖套",
        "item_full_title": "冰丝袖套防晒女夏季护臂手臂套袖袖子男士户外胳膊手套薄韩国冰袖",
        "item_price": 9.90,
        "item_discount_price": 8.90,
        "item_pic_url": "http://img02.taobaocdn.com/bao/uploaded/i2/TB1TxXzSXXXXXXuapXXXXXXXXXX_!!0-item_pic.jpg",
        "item_sale": 177520,
        "shop_id": 107955597,
        "shop_name": "linebeauty旗舰店",
        "shop_type": "B",
        "shop_cat": "",
        "guide_desc": "舒适透气，冰爽防晒，吸湿排汗，弹性十足，防晒神器，全新冰丝系列，抗UV防晒概念。",
        "total_comm": 0.00,
        "comm_rate": "3.5",
        "comm_rate1": "20.5",
        "comm_rate2": "0",
        "comm_rate3": "20.5",
        "activity_id": "38e177b096454f4b94f6c90f7f806d83",
        "root_category_id": 50010404,
        "item_online_status": 1,
        "create_time": "2017-06-12T16:59:58",
        "update_time": "2017-08-07T11:08:29",
        "coupon": {
          "id": 830662,
          "coupon_money": 1.00,
          "coupon_limit": 9.00,
          "total_count": 10000,
          "remain_count": 10000,
          "start_time": "2017-08-01T00:00:00",
          "end_time": "2017-08-07T23:59:59",
          "is_valid": true
        }
      }
    ],
    "last": false,
    "total_pages": 8254,
    "total_elements": 82540,
    "first": true,
    "number_of_elements": 10,
    "sort": [
      {
        "direction": "DESC",
        "property": "itemSale",
        "ignore_case": false,
        "null_handling": "NATIVE",
        "ascending": false,
        "descending": true
      }
    ],
    "size": 10,
    "number": 0
  }
}{
  "code": 200,
  "data": {
    "content": [
      {
        "item_id": 42078146002,
        "item_cid": 50016739,
        "item_title": "佑游男士游泳五件套装 游泳装备男时尚平角加大码加肥游泳裤泳衣",
        "item_full_title": "佑游男士游泳五件套装 游泳装备男时尚平角加大码加肥游泳裤泳衣",
        "item_price": 35.00,
        "item_discount_price": 32.00,
        "item_pic_url": "http://img02.taobaocdn.com/bao/uploaded/i2/679318614/TB1SrGESFXXXXaVXVXXXXXXXXXX_!!0-item_pic.jpg",
        "item_sale": 129676,
        "shop_id": 65384237,
        "shop_name": "金格尔运动专营店",
        "shop_type": "B",
        "shop_cat": "",
        "guide_desc": "新型防水泳裤设计，帽子为不防水的",
        "total_comm": 0.00,
        "comm_rate": "2",
        "comm_rate1": "2",
        "comm_rate2": "0",
        "comm_rate3": "0",
        "activity_id": "adbats_42078146002",
        "root_category_id": 50010728,
        "item_online_status": 1,
        "create_time": "2017-08-04T16:48:10",
        "update_time": "2017-08-07T09:28:31",
        "coupon": {
          "id": 878335,
          "coupon_money": 3.00,
          "coupon_limit": 8.00,
          "total_count": 100000,
          "remain_count": 66574,
          "start_time": "2017-07-22T00:00:00",
          "end_time": "2017-08-31T23:59:59",
          "is_valid": true
        }
      },
      {
        "item_id": 521077644536,
        "item_cid": 50008882,
        "item_title": "5条女士内裤女纯棉无痕全棉蕾丝性感低腰三角裤中腰大码棉质面料",
        "item_full_title": "女士内裤女纯棉中腰全棉蕾丝性感无痕低腰少女三角裤大码棉质面料",
        "item_price": 22.90,
        "item_discount_price": 19.90,
        "item_pic_url": "http://img02.taobaocdn.com/bao/uploaded/i2/87580387/TB2XsNMXbH8F1JjSspoXXXWYXXa_!!87580387.jpg",
        "item_sale": 126432,
        "shop_id": 58976371,
        "shop_name": "黛尔佳人内衣品牌店",
        "shop_type": "C",
        "shop_cat": "",
        "guide_desc": "精选全棉内裤，5条精美礼盒装。100多个款式颜色，清新可爱性感萝莉，多种风格都有，总有一款适合你。",
        "total_comm": 0.00,
        "comm_rate": "3",
        "comm_rate1": "30.5",
        "comm_rate2": "0",
        "comm_rate3": "30.5",
        "activity_id": "0e948f215ce04a51a8a398df3bb3dd33",
        "root_category_id": 1625,
        "item_online_status": 1,
        "create_time": "2017-06-09T08:07:34",
        "update_time": "2017-08-07T11:05:03",
        "coupon": {
          "id": 899028,
          "coupon_money": 3.00,
          "coupon_limit": 22.00,
          "total_count": 5000,
          "remain_count": 5000,
          "start_time": "2017-08-06T00:00:00",
          "end_time": "2017-08-12T23:59:59",
          "is_valid": true
        }
      },
      {
        "item_id": 549117414462,
        "item_cid": 50003460,
        "item_title": "【随机款18只】强力承重粘胶无痕挂钩",
        "item_full_title": "强力粘胶挂钩无痕厨房卧室墙壁不粘钩挂浴室门后承重粘帖吸盘粘钩",
        "item_price": 24.90,
        "item_discount_price": 19.90,
        "item_pic_url": "http://img03.taobaocdn.com/bao/uploaded/i3/TB1ClK_SpXXXXcIaXXXXXXXXXXX_!!0-item_pic.jpg",
        "item_sale": 121582,
        "shop_id": 165972382,
        "shop_name": "魔力宝贝家居旗舰店",
        "shop_type": "B",
        "shop_cat": "",
        "guide_desc": "承重30斤，一年掉落退款，原创精品多款花型，免钉免钻，不伤墙面，越粘越久，防水不脱落，承载极强，家居便捷帮手~",
        "total_comm": 0.00,
        "comm_rate": "31",
        "comm_rate1": "31",
        "comm_rate2": "0",
        "comm_rate3": "31",
        "activity_id": "3afd2e54785d46b5a1092d529f772fab",
        "root_category_id": 122928002,
        "item_online_status": 1,
        "create_time": "2017-06-09T15:11:39",
        "update_time": "2017-08-07T11:06:44",
        "coupon": {
          "id": 856433,
          "coupon_money": 5.00,
          "coupon_limit": 13.00,
          "total_count": 10000,
          "remain_count": 10000,
          "start_time": "2017-08-03T00:00:00",
          "end_time": "2017-08-07T23:59:59",
          "is_valid": true
        }
      },
      {
        "item_id": 540607271351,
        "item_cid": 50010401,
        "item_title": "陶瓷电卷发棒大卷发神器夹板迷你拉直卷两用不伤发直发器烫发",
        "item_full_title": "希佳电卷发棒直卷两用夹板烫直发器迷你直板夹大卷内扣刘海不伤发",
        "item_price": 29.90,
        "item_discount_price": 14.90,
        "item_pic_url": "http://img02.taobaocdn.com/bao/uploaded/i2/2944411999/TB1QkBcSFXXXXXaaXXXXXXXXXXX_!!0-item_pic.jpg",
        "item_sale": 120832,
        "shop_id": 352650323,
        "shop_name": "希佳电器旗舰店",
        "shop_type": "B",
        "shop_cat": "",
        "guide_desc": "全网类目第一，电气石陶瓷速热机芯，三段式温度选择，各种发型随心所欲！",
        "total_comm": 0.00,
        "comm_rate": "1.8",
        "comm_rate1": "30.4",
        "comm_rate2": "0",
        "comm_rate3": "30.4",
        "activity_id": "c47580be651a4aec91d632bcf2242fdf",
        "root_category_id": 50002768,
        "item_online_status": 1,
        "create_time": "2017-06-15T14:53:16",
        "update_time": "2017-08-07T11:20:31",
        "coupon": {
          "id": 831112,
          "coupon_money": 15.00,
          "coupon_limit": 28.00,
          "total_count": 100000,
          "remain_count": 100000,
          "start_time": "2017-08-01T00:00:00",
          "end_time": "2017-08-07T23:59:59",
          "is_valid": true
        }
      },
      {
        "item_id": 39855713665,
        "item_cid": 50017083,
        "item_title": "杀蟑螂药胶饵除灭蟑螂屋粘贴板",
        "item_full_title": "杀蟑螂药胶饵除灭蟑螂屋粘贴板捕捉器家用全窝端强力灭蟑清杀虫剂",
        "item_price": 19.90,
        "item_discount_price": 9.90,
        "item_pic_url": "http://img03.taobaocdn.com/bao/uploaded/i3/TB1ma1dSpXXXXXGXFXXXXXXXXXX_!!0-item_pic.jpg",
        "item_sale": 119883,
        "shop_id": 104326457,
        "shop_name": "天韵家居专营店",
        "shop_type": "B",
        "shop_cat": "",
        "guide_desc": "累计销量过千万，好评57万！三管齐下连锁灭蟑，安全环保，三证齐全，值得信赖！",
        "total_comm": 0.00,
        "comm_rate": "50.5",
        "comm_rate1": "50.5",
        "comm_rate2": "0",
        "comm_rate3": "0",
        "activity_id": "adbats_39855713665",
        "root_category_id": 50025705,
        "item_online_status": 1,
        "create_time": "2017-07-25T13:00:50",
        "update_time": "2017-08-07T11:23:16",
        "coupon": {
          "id": 783621,
          "coupon_money": 10.00,
          "coupon_limit": 15.00,
          "total_count": 10000,
          "remain_count": 9020,
          "start_time": "2017-07-23T00:00:00",
          "end_time": "2017-08-23T23:59:59",
          "is_valid": true
        }
      },
      {
        "item_id": 534068049215,
        "item_cid": 50009032,
        "item_title": "壹号保罗男士皮带真皮自动扣休闲中年裤带青年韩版腰带牛皮裤腰带",
        "item_full_title": "壹号保罗男士皮带真皮自动扣休闲中年裤带青年韩版腰带牛皮裤腰带",
        "item_price": 39.99,
        "item_discount_price": 24.99,
        "item_pic_url": "http://img04.taobaocdn.com/bao/uploaded/i4/TB1YWjYRpXXXXcRXpXXXXXXXXXX_!!0-item_pic.jpg",
        "item_sale": 116817,
        "shop_id": 111912237,
        "shop_name": "壹号保罗旗舰店",
        "shop_type": "B",
        "shop_cat": "",
        "guide_desc": "真皮牛皮材质，品质保证，合金扣头，时尚大方，累计销售88万件24色可选，6个月断裂免费换新，值得推荐！二层牛皮，手感柔软，细腻高档，限时亏本促销。收藏宝贝加购物车截图客服送精美礼品。",
        "total_comm": 0.00,
        "comm_rate": "15.5",
        "comm_rate1": "30.52",
        "comm_rate2": "30.52",
        "comm_rate3": "30.5",
        "activity_id": "6408917ad1fc41f0a8e1ae3805ce16d8",
        "root_category_id": 50010404,
        "item_online_status": 1,
        "create_time": "2017-06-06T19:01:23",
        "update_time": "2017-08-07T11:00:05",
        "coupon": {
          "id": 851935,
          "coupon_money": 15.00,
          "coupon_limit": 39.00,
          "total_count": 30000,
          "remain_count": 30000,
          "start_time": "2017-08-03T00:00:00",
          "end_time": "2017-08-07T23:59:59",
          "is_valid": true
        }
      },
      {
        "item_id": 548622120666,
        "item_cid": 50012587,
        "item_title": "卡绮+苹果6s钢化膜全屏iPhone6手机贴膜7plus玻璃钢化膜5s抗蓝光",
        "item_full_title": "卡绮苹果6s钢化膜全屏iPhone6手机贴膜7plus玻璃膜防爆5s抗蓝光六",
        "item_price": 12.80,
        "item_discount_price": 7.80,
        "item_pic_url": "http://img03.taobaocdn.com/bao/uploaded/i3/TB1VeTNRVXXXXX5XVXXXXXXXXXX_!!0-item_pic.jpg",
        "item_sale": 115152,
        "shop_id": 108528154,
        "shop_name": "卡绮旗舰店",
        "shop_type": "B",
        "shop_cat": "",
        "guide_desc": "升级版强化高清膜，三倍增强不碎边，弧边工艺手感更好，买一送一，再送两张碳纤维透明后膜！",
        "total_comm": 0.00,
        "comm_rate": "5.3",
        "comm_rate1": "40.3",
        "comm_rate2": "0",
        "comm_rate3": "0",
        "activity_id": "5b3288ce6a8241dea360bf00d761bc87",
        "root_category_id": 50008090,
        "item_online_status": 1,
        "create_time": "2017-06-09T07:25:15",
        "update_time": "2017-08-07T11:04:46",
        "coupon": {
          "id": 901505,
          "coupon_money": 5.00,
          "coupon_limit": 10.00,
          "total_count": 10000,
          "remain_count": 5000,
          "start_time": "2017-08-06T00:00:00",
          "end_time": "2017-08-08T23:59:59",
          "is_valid": true
        }
      },
      {
        "item_id": 18899612134,
        "item_cid": 121458013,
        "item_title": "PVC防水桌布防烫软质玻璃塑料台布免洗茶几餐桌垫透明胶垫水晶板",
        "item_full_title": "软玻璃PVC桌布防水防烫防油免洗塑料茶几垫餐桌垫透明胶垫水晶板",
        "item_price": 16.30,
        "item_discount_price": 13.30,
        "item_pic_url": "http://img01.taobaocdn.com/bao/uploaded/i1/TB1GHoENXXXXXahaXXXXXXXXXXX_!!0-item_pic.jpg",
        "item_sale": 114347,
        "shop_id": 71827426,
        "shop_name": "伊丝绮旗舰店",
        "shop_type": "B",
        "shop_cat": "",
        "guide_desc": "",
        "total_comm": 0.00,
        "comm_rate": "12.5",
        "comm_rate1": "30.5",
        "comm_rate2": "0",
        "comm_rate3": "0",
        "activity_id": "adbats_18899612134",
        "root_category_id": 122852001,
        "item_online_status": 1,
        "create_time": "2017-06-10T14:18:06",
        "update_time": "2017-08-07T11:07:54",
        "coupon": {
          "id": 740462,
          "coupon_money": 3.00,
          "coupon_limit": 8.00,
          "total_count": 100000,
          "remain_count": 60000,
          "start_time": "2017-06-30T00:00:00",
          "end_time": "2017-12-30T23:59:59",
          "is_valid": true
        }
      },
      {
        "item_id": 40992040063,
        "item_cid": 50008882,
        "item_title": "南极人男士内裤 男平角裤 冰丝夏季四角裤青年中腰运动透气裤头潮",
        "item_full_title": "南极人男士内裤 男平角裤 冰丝夏季四角裤青年中腰运动透气裤头潮",
        "item_price": 39.90,
        "item_discount_price": 34.90,
        "item_pic_url": "http://img02.taobaocdn.com/bao/uploaded/i2/TB1cJ9gQXXXXXbWXpXXXXXXXXXX_!!0-item_pic.jpg",
        "item_sale": 114081,
        "shop_id": 57301151,
        "shop_name": "嘉士内衣专营店",
        "shop_type": "B",
        "shop_cat": "",
        "guide_desc": "优惠再多 值才重要 网孔内裤 健康透气",
        "total_comm": 0.00,
        "comm_rate": "8.5",
        "comm_rate1": "30.5",
        "comm_rate2": "0",
        "comm_rate3": "30.5",
        "activity_id": "adbats_40992040063",
        "root_category_id": 1625,
        "item_online_status": 1,
        "create_time": "2017-08-04T16:33:10",
        "update_time": "2017-08-07T09:28:18",
        "coupon": {
          "id": 877640,
          "coupon_money": 5.00,
          "coupon_limit": 39.00,
          "total_count": 5000,
          "remain_count": 4850,
          "start_time": "2017-08-04T00:00:00",
          "end_time": "2017-08-07T23:59:59",
          "is_valid": true
        }
      },
      {
        "item_id": 527302985351,
        "item_cid": 1205,
        "item_title": "英尚 T600入耳式安卓苹果手机通用女生挂耳耳塞小米华为运动耳机",
        "item_full_title": "英尚 T600入耳式安卓苹果手机通用女生挂耳耳塞小米华为运动耳机",
        "item_price": 37.80,
        "item_discount_price": 7.80,
        "item_pic_url": "http://img03.taobaocdn.com/bao/uploaded/i3/TB1m9oURVXXXXcIXVXXXXXXXXXX_!!0-item_pic.jpg",
        "item_sale": 113376,
        "shop_id": 62200392,
        "shop_name": "际全数码专营店",
        "shop_type": "B",
        "shop_cat": "",
        "guide_desc": "通用耳机，线控带麦，智能降噪，防水防汗，运动防脱落，多色可选，另送耳挂+线扣，包邮！",
        "total_comm": 0.00,
        "comm_rate": "5.3",
        "comm_rate1": "40.3",
        "comm_rate2": "40.3",
        "comm_rate3": "40.3",
        "activity_id": "9f32aef498f94d8eb059ba2b9f9da5cc",
        "root_category_id": 50011972,
        "item_online_status": 1,
        "create_time": "2017-06-09T15:34:47",
        "update_time": "2017-08-07T11:06:53",
        "coupon": {
          "id": 901829,
          "coupon_money": 30.00,
          "coupon_limit": 37.00,
          "total_count": 20000,
          "remain_count": 20000,
          "start_time": "2017-08-06T00:00:00",
          "end_time": "2017-08-09T23:59:59",
          "is_valid": true
        }
      }
    ],
    "last": false,
    "total_elements": 82546,
    "total_pages": 8255,
    "number_of_elements": 10,
    "first": false,
    "sort": [
      {
        "direction": "DESC",
        "property": "itemSale",
        "ignore_case": false,
        "null_handling": "NATIVE",
        "ascending": false,
        "descending": true
      }
    ],
    "size": 10,
    "number": 2
  }
}